[
    {
      "Serial Number": 1,
      "Name": "Maria Anders",
      "Email": "maria1@gmail.com",
      "Job title": "Designer",
      "Contact": 6604567834,
      "Payment Status": "Paid"
    },
    {
      "Serial Number": 2,
      "Name": "Aaron williams",
      "Email": "aaron21@gmail.com",
      "Job title": "Professor",
      "Contact": 6601234834,
      "Payment Status": "Paid"
    },
    {
      "Serial Number": 3,
      "Name": "Matthew",
      "Email": "matt2331@gmail.com",
      "Job title": "Software Engineer",
      "Contact": 3304566834,
      "Payment Status": "Pending"
    },
    {
      "Serial Number": 4,
      "Name": "John wubala",
      "Email": "john2k1@gmail.com",
      "Job title": "Tester",
      "Contact": 4354567834,
      "Payment Status": "Pending"
    },
    {
      "Serial Number": 5,
      "Name": "Deah Macwallace",
      "Email": "macdaeh1@gmail.com",
      "Job title": "Developer",
      "Contact": 8765457834,
      "Payment Status": "Pending"
    },
    {
      "Serial Number": 6,
      "Name": "Magazzini Alimentari Riuniti",
      "Email": "magazz007@gmail.com",
      "Job title": "Student",
      "Contact": 8686825334,
      "Payment Status": "Pending"
    }
  ]
  